<?xml version="1.0" encoding="UTF-8"?>
<!-- Created with Inkscape (http://www.inkscape.org/) -->
<svg width="672" height="230" version="1.1" viewBox="0 0 672 230" xmlns="http://www.w3.org/2000/svg">
 <g fill-rule="evenodd">
  <path transform="matrix(2.7245 0 0 2.7245 -53.752 -22.24)" d="m56.203 15.033 11.012 21.651 23.994 3.7828-17.188 17.164 3.8169 23.989-21.635-11.043-21.635 11.043 3.8169-23.989-17.188-17.164 23.994-3.7828z" fill="#80ff80" style="paint-order:normal"/>
  <path transform="matrix(2.6317 .70516 -.70516 2.6317 31.021 -55.451)" d="m40.806 15.033 4.1362 26.822 21.891-16.041-16.041 21.891 26.822 4.1362-26.822 4.1362 16.041 21.891-21.891-16.041-4.1362 26.822-4.1362-26.822-21.891 16.041 16.041-21.891-26.822-4.1362 26.822-4.1362-16.041-21.891 21.891 16.041z" fill="#00d400" style="paint-order:normal"/>
  <path transform="matrix(2.7245 0 0 2.7245 400.08 -22.24)" d="m56.203 15.033 11.012 21.651 23.994 3.7828-17.188 17.164 3.8169 23.989-21.635-11.043-21.635 11.043 3.8169-23.989-17.188-17.164 23.994-3.7828z" fill="#80ff80" style="paint-order:normal"/>
  <path transform="matrix(2.6317 .70516 -.70516 2.6317 484.85 -55.451)" d="m39.733 12.188 11.682 30.349 21.579-18.147-15.496 26.96 24.795-3.9521-24.93 7.555 15.721 17.351-21.605-13.316-11.867 37.617-2.8484-32.35-21.579 22.092 15.496-26.96-33.923-6.7735 34.058 3.1706-15.721-35.166 21.605 27.186z" fill="#00d400" style="paint-order:normal"/>
  <path transform="matrix(2.7245 0 0 2.7245 172.7 -22.24)" d="m56.203 15.033 11.012 21.651 23.994 3.7828-17.188 17.164 3.8169 23.989-21.635-11.043-21.635 11.043 3.8169-23.989-17.188-17.164 23.994-3.7828z" fill="#80ff80" style="paint-order:normal"/>
  <path transform="matrix(2.6317 .70516 -.70516 2.6317 257.47 -55.451)" d="m40.806 15.033c8.6845 1e-6 -3.8872 23.499 4.1362 26.822 8.0234 3.3234 15.75-22.182 21.891-16.041 6.1409 6.1409-19.365 13.867-16.041 21.891 3.3234 8.0234 26.822-4.5483 26.822 4.1362 0 8.6845-23.499-3.8872-26.822 4.1362s22.182 15.75 16.041 21.891-13.867-19.365-21.891-16.041c-8.0234 3.3234 4.5483 26.822-4.1362 26.822s3.8872-23.499-4.1362-26.822c-8.0234-3.3234-15.75 22.182-21.891 16.041-6.1409-6.1409 19.365-13.867 16.041-21.891-3.3234-8.0234-26.822 4.5483-26.822-4.1362s23.499 3.8872 26.822-4.1362c3.3234-8.0234-22.182-15.75-16.041-21.891 6.1409-6.1409 13.867 19.365 21.891 16.041 8.0234-3.3234-4.5483-26.822 4.1362-26.822z" fill="#00d400" style="paint-order:normal"/>
 </g>
</svg>
