<?xml version="1.0" encoding="UTF-8" standalone="no"?>
<svg xmlns:rdf="http://www.w3.org/1999/02/22-rdf-syntax-ns#" xmlns="http://www.w3.org/2000/svg" version="1.1" xmlns:cc="http://creativecommons.org/ns#" viewBox="0 0 16 16" xmlns:dc="http://purl.org/dc/elements/1.1/">
<metadata>
<rdf:RDF>
<cc:Work rdf:about="">
<dc:format>image/svg+xml</dc:format>
<dc:type rdf:resource="http://purl.org/dc/dcmitype/StillImage"/>
</cc:Work>
</rdf:RDF>
</metadata>
<circle cy="8" cx="8" r="6" fill="#b0c5da"/>
<path stroke-linejoin="round" d="m14 8h-6l3-5" stroke-dashoffset=".5" stroke="#c80000" stroke-dasharray="1, 1" fill="none"/>
<circle stroke="blue" cy="8" cx="8" r="6" fill="none"/>
</svg>
