<?xml version="1.0" encoding="UTF-8" standalone="no"?>
<svg xmlns:rdf="http://www.w3.org/1999/02/22-rdf-syntax-ns#" xmlns="http://www.w3.org/2000/svg" version="1.1" xmlns:cc="http://creativecommons.org/ns#" xmlns:xlink="http://www.w3.org/1999/xlink" viewBox="0 0 15.99999 15.999992" xmlns:dc="http://purl.org/dc/elements/1.1/">
<metadata>
<rdf:RDF>
<cc:Work rdf:about="">
<dc:format>image/svg+xml</dc:format>
<dc:type rdf:resource="http://purl.org/dc/dcmitype/StillImage"/>
</cc:Work>
</rdf:RDF>
</metadata>
<defs>
<linearGradient id="b" y2="209.2774" gradientUnits="userSpaceOnUse" x2="14.01084" gradientTransform="matrix(1.629558 0 0 .429186 88.20441 232.3331)" y1="203.3658" x1="10.04167">
<stop stop-color="#5a5a5a" offset="0"/>
<stop offset="1"/>
</linearGradient>
<linearGradient id="a" y2="220.3475" gradientUnits="userSpaceOnUse" x2="18.5289" gradientTransform="matrix(1.387116 0 0 .200828 86.1208 278.4604)" y1="213.6631" x1="15.24248">
<stop stop-color="#fff" offset="0"/>
<stop stop-color="#98b6d3" offset="1"/>
</linearGradient>
</defs>
<g transform="matrix(1 0 0 .998006 -319.03741 -103.61827)" fill="none">
<rect style="color:#000000" height="16.03196" width="15.99999" y="103.8253" x="319.0374" stroke-width=".531496"/>
<g stroke-linejoin="round" stroke-miterlimit="0">
<rect style="color:#000000" transform="matrix(0,1,1,0,0,0)" height="3.003929" width="13.03433" stroke="url(#b)" y="320.5352" x="105.3283" stroke-width="1.001"/>
<rect style="color:#000000" transform="matrix(0,1,1,0,0,0)" height="1.00681" width="11.05956" stroke="url(#a)" stroke-linecap="round" y="321.5375" x="106.2927" stroke-width="1.0010008"/>
<g transform="translate(4.998223 .00003261012)">
<rect style="color:#000000" transform="matrix(0,1,1,0,0,0)" height="3.003929" width="13.03433" stroke="url(#b)" y="320.5352" x="105.3283" stroke-width="1.001"/>
<rect style="color:#000000" transform="matrix(0,1,1,0,0,0)" height="1.00681" width="11.05956" stroke="url(#a)" stroke-linecap="round" y="321.5375" x="106.2927" stroke-width="1.0010008"/>
</g>
<g transform="translate(10.002153 -.0083207899)">
<rect style="color:#000000" transform="matrix(0,1,1,0,0,0)" height="3.003929" width="13.03433" stroke="url(#b)" y="320.5352" x="105.3283" stroke-width="1.001"/>
<rect style="color:#000000" transform="matrix(0,1,1,0,0,0)" height="1.00681" width="11.05956" stroke="url(#a)" stroke-linecap="round" y="321.5375" x="106.2927" stroke-width="1.0010008"/>
</g>
</g>
</g>
</svg>
