<?xml version="1.0" encoding="UTF-8" standalone="no"?>
<svg xmlns:rdf="http://www.w3.org/1999/02/22-rdf-syntax-ns#" xmlns="http://www.w3.org/2000/svg" version="1.1" xmlns:cc="http://creativecommons.org/ns#" viewBox="0 0 16 16.039" xmlns:dc="http://purl.org/dc/elements/1.1/">
<metadata>
<rdf:RDF>
<cc:Work rdf:about="">
<dc:format>image/svg+xml</dc:format>
<dc:type rdf:resource="http://purl.org/dc/dcmitype/StillImage"/>
</cc:Work>
</rdf:RDF>
</metadata>
<g transform="translate(-289.95913,-154.961)">
<path fill-rule="evenodd" fill="#8ab3de" d="m290.5 155.5v8c3 0 7 4 7 7h8c0-8-7-15-15-15z"/>
<path d="m290.7799 163.2201c3 0 7 4 7 7" stroke="#000" stroke-linecap="round" stroke-dasharray="1, 2" fill="none"/>
<path style="color:#000000" d="m290.5 159.5c5 0 11 5 11 11" stroke="#000" stroke-linecap="round" fill="none"/>
<rect stroke-linejoin="round" style="color:#000000" fill-rule="evenodd" fill-opacity=".3921569" transform="translate(335.9487 -14.03415)" height="3.023564" width="3.009614" stroke="#00f" stroke-linecap="round" stroke-miterlimit="0" y="-39.5126" x="-178.495" stroke-width="1.0000025" fill="#6464ff"/>
<path style="color:#000000" d="m290.5 155.5c8 0 15 7 15 15" transform="translate(-.04087 -.039)" stroke="#000" stroke-linecap="round" stroke-dasharray="1, 2" fill="none"/>
<path style="color:#000000" d="m290.5 170.5v-8c4 0 8 4 8 8h-8z" fill-opacity=".59" fill-rule="evenodd" transform="translate(-.04087 -.039)" stroke-width="1px" fill="#99b6d4"/>
</g>
</svg>
