<?xml version="1.0" encoding="UTF-8" standalone="no"?>
<svg xmlns:rdf="http://www.w3.org/1999/02/22-rdf-syntax-ns#" xmlns="http://www.w3.org/2000/svg" version="1.1" xmlns:cc="http://creativecommons.org/ns#" viewBox="0 0 16 16" xmlns:dc="http://purl.org/dc/elements/1.1/">
<metadata>
<rdf:RDF>
<cc:Work rdf:about="">
<dc:format>image/svg+xml</dc:format>
<dc:type rdf:resource="http://purl.org/dc/dcmitype/StillImage"/>
</cc:Work>
</rdf:RDF>
</metadata>
<g transform="translate(-290,-155)">
<path style="color:#000000" d="m290.5 170.5v-8c4 0 8 4 8 8h-8z" fill-opacity=".59" fill-rule="evenodd" stroke-width="1px" fill="#99b6d4"/>
<path fill-rule="evenodd" fill="#99b7d4" d="m290.5 155.5v7c4 0 8 4 8 8h7c0-8-7-15-15-15z"/>
<path d="m290.5 155.5c8 0 15 7 15 15" stroke="#000" stroke-linecap="round" stroke-width="1px" fill="none"/>
<path d="m290.5 162.5c4 0 8 4 8 8" stroke="#000" stroke-linecap="round" stroke-dasharray="1, 2" fill="none"/>
<path d="m299.5 161.5h-4l4 4v-4z" fill-rule="evenodd" stroke="#000" stroke-width="1px"/>
</g>
</svg>
