<?xml version="1.0" encoding="UTF-8" standalone="no"?>
<svg xmlns:rdf="http://www.w3.org/1999/02/22-rdf-syntax-ns#" xmlns="http://www.w3.org/2000/svg" version="1.1" xmlns:cc="http://creativecommons.org/ns#" xmlns:xlink="http://www.w3.org/1999/xlink" viewBox="0 0 30.558198 26.445583" xmlns:dc="http://purl.org/dc/elements/1.1/">
<metadata>
<rdf:RDF>
<cc:Work rdf:about="">
<dc:format>image/svg+xml</dc:format>
<dc:type rdf:resource="http://purl.org/dc/dcmitype/StillImage"/>
</cc:Work>
</rdf:RDF>
</metadata>
<defs>
<linearGradient id="c" y2="318.0103" xlink:href="#a" gradientUnits="userSpaceOnUse" x2="375.3615" gradientTransform="translate(19.05203,-3.089519)" y1="338.0772" x1="348.6006"/>
<linearGradient id="a">
<stop stop-color="#1caf19" offset="0"/>
<stop stop-color="#6df668" offset="1"/>
</linearGradient>
<linearGradient id="b" y2="318.0103" xlink:href="#a" gradientUnits="userSpaceOnUse" x2="375.3615" gradientTransform="translate(4.119358,37.58914)" y1="338.0772" x1="348.6006"/>
</defs>
<g stroke="#000" stroke-width="1.2" transform="matrix(.8557944 0 0 .8106021 -307.06434 -255.18257)">
<path d="m368.2187 315.4062c-0.5937 0-1.0937 0.5-1.0937 1.0938v8.1875h-6.625c-0.5938 0-1.0938 0.4687-1.0938 1.0625v18.9687c0 0.414 0.2519 0.7588 0.5938 0.9375 0.026 0.0136 0.0353 0.051 0.0625 0.0625 0.1783 0.3432 0.5226 0.5938 0.9375 0.5938h24.625c0.5938 0 1.0938-0.4687 1.0937-1.0625v-8.7188h6.125c0.5938 0 1.0626-0.4686 1.0625-1.0625v-18.9687c0-0.5938-0.4687-1.0938-1.0625-1.0938h-24.625z"/>
<g transform="translate(-3.545057e-7 .5149192)">
<rect ry="1.071839" height="21.11171" width="26.77582" y="315.4208" x="367.1378" fill="url(#c)"/>
<g transform="translate(7.208876,-31.4101)">
<rect ry="1.071839" height="21.11171" width="26.77582" y="356.6143" x="352.72"/>
<rect ry="1.071839" height="21.11171" width="26.77582" y="356.0994" x="352.2051" fill="url(#b)"/>
</g>
</g>
</g>
</svg>
