<?xml version="1.0" encoding="UTF-8" standalone="no"?>
<svg xmlns:rdf="http://www.w3.org/1999/02/22-rdf-syntax-ns#" xmlns="http://www.w3.org/2000/svg" version="1.1" xmlns:cc="http://creativecommons.org/ns#" xmlns:xlink="http://www.w3.org/1999/xlink" viewBox="0 0 24 24" xmlns:dc="http://purl.org/dc/elements/1.1/">
<metadata>
<rdf:RDF>
<cc:Work rdf:about="">
<dc:format>image/svg+xml</dc:format>
<dc:type rdf:resource="http://purl.org/dc/dcmitype/StillImage"/>
</cc:Work>
</rdf:RDF>
</metadata>
<defs>
<linearGradient id="d" y2="275.9288" gradientUnits="userSpaceOnUse" x2="498.0183" gradientTransform="matrix(-1.061943 .6131129 -.6131129 -1.061943 1168.341 499.529)" y1="278.6932" x1="501.3698">
<stop stop-color="#ffbf00" offset="0"/>
<stop stop-color="#fff" offset="1"/>
</linearGradient>
<linearGradient id="b" y2="118.6402" gradientUnits="userSpaceOnUse" x2="95.75075" gradientTransform="matrix(-.9089148 .8231073 -.8530767 -.9420083 659.3328 552.0315)" y1="121.4717" x1="99.27937">
<stop stop-color="#499204" offset="0"/>
<stop stop-color="#a7e26e" offset="1"/>
</linearGradient>
<linearGradient id="c" y2="279.6869" gradientUnits="userSpaceOnUse" x2="501.1567" gradientTransform="matrix(-1.061943 .6131129 -.6131129 -1.061943 1170.473 499.786)" y1="276.5925" x1="497.1992">
<stop stop-color="#5a5a5a" offset="0"/>
<stop offset="1"/>
</linearGradient>
</defs>
<g transform="translate(-452.0128,-501.9702)">
<path fill="none" d="m452.0128 501.9702h24v24h-24v-24z"/>
<path stroke-linejoin="round" d="m469.8452 510.2732-0.6125-2.1265c-0.5069-1.4158-4.1999-1.0896-3.6768 0.3791l0.4252 2.061" fill-rule="evenodd" fill-opacity=".75" stroke="#000" stroke-linecap="round" fill="#fff"/>
<path fill-rule="evenodd" fill="url(#b)" d="m473.7308 513.5934-1.5669-0.7678-7.7767 1.0592-1.3456 1.4979 1.2612 7.0627c2.6549-1.5327 4.2097 6.0652 11.1123 2.08l-1.6843-10.932z"/>
<path stroke-linejoin="round" d="m471.9733 512.7668-0.8518-2.5639-6.4741 1.0488-0.3535 2.9386" fill-rule="evenodd" stroke="url(#c)" stroke-linecap="round" fill="url(#d)"/>
<path stroke-linejoin="round" d="m463.9963 521.9146-0.7912-5.6356c-0.2148-0.9391 0.4291-2.1673 1.1494-2.1276 2.6532 0.1461 5.2412-0.1993 7.7374-1.2781 0.4782-0.2067 1.6881 0.6938 1.7943 1.3447l1.2224 9.7764" stroke="#000" stroke-linecap="round" fill="none"/>
<path fill="none" d="m470.9273 507.9889-6.005 0.6351 0.2465 4.1055 5.6984-1.1661 0.0601-3.5745z"/>
<path d="m471.4201 516.1999 1.0239 7.9044" stroke="#fff" stroke-linecap="round" stroke-width="1.2262259px" fill="none"/>
<circle id="a" style="color:#000000" stroke-width=".2295042" transform="matrix(.4357219 0 0 .4357219 373.8457 283.2499)" cy="518.4219" cx="206.5896" r=".9253731"/>
<use xlink:href="#a" transform="matrix(1.058646,0,0,1.058646,-27.96918,-28.7297)" height="1052.362" width="744.0945" y="0" x="0"/>
<use xlink:href="#a" transform="matrix(1.058646,0,0,1.058646,-27.96918,-30.937868)" height="1052.362" width="744.0945" y="0" x="0"/>
<use xlink:href="#a" transform="matrix(1.058646 0 0 1.058646 -28.667411 -29.858949)" height="1052.362" width="744.0945" y="0" x="0"/>
<use xlink:href="#a" transform="matrix(1.4569817 0 0 1.4569817 -214.12872 -230.674)" height="1052.362" width="744.0945" y="0" x="0"/>
<use xlink:href="#a" transform="matrix(1.4569817 0 0 1.4569817 -214.46062 -234.64623)" height="1052.362" width="744.0945" y="0" x="0"/>
<use xlink:href="#a" transform="matrix(1.4569817 0 0 1.4569817 -215.08447 -232.66675)" height="1052.362" width="744.0945" y="0" x="0"/>
<use xlink:href="#a" transform="matrix(2.1872646 0 0 2.1872646 -554.83265 -601.49762)" height="1052.362" width="744.0945" y="0" x="0"/>
<use xlink:href="#a" transform="matrix(2.1872646 0 0 2.1872646 -555.45571 -607.38726)" height="1052.362" width="744.0945" y="0" x="0"/>
<use xlink:href="#a" transform="matrix(2.1872646 0 0 2.1872646 -556.14516 -604.4811)" height="1052.362" width="744.0945" y="0" x="0"/>
<use xlink:href="#a" transform="matrix(3.2494943 0 0 3.2494943 -1050.6329 -1140.6296)" height="1052.362" width="744.0945" y="0" x="0"/>
<use xlink:href="#a" transform="matrix(3.2494943 0 0 3.2494943 -1051.3531 -1149.3171)" height="1052.362" width="744.0945" y="0" x="0"/>
<use xlink:href="#a" transform="matrix(3.2494943 0 0 3.2494943 -1052.3295 -1145.3021)" height="1052.362" width="744.0945" y="0" x="0"/>
<use xlink:href="#a" transform="translate(-4.235815,-1.303328)" height="1052.362" width="744.0945" y="0" x="0"/>
<use xlink:href="#a" transform="translate(-3.7877961 1.384785)" height="1052.362" width="744.0945" y="0" x="0"/>
<use xlink:href="#a" transform="matrix(1.4569817 0 0 1.4569817 -214.46062 -234.64623)" height="1052.362" width="744.0945" y="0" x="0"/>
<use xlink:href="#a" transform="matrix(1.4569817 0 0 1.4569817 -213.76822 -230.5326)" height="1052.362" width="744.0945" y="0" x="0"/>
</g>
</svg>
