<?xml version="1.0" encoding="UTF-8" standalone="no"?>
<svg xmlns:rdf="http://www.w3.org/1999/02/22-rdf-syntax-ns#" xmlns="http://www.w3.org/2000/svg" version="1.1" xmlns:cc="http://creativecommons.org/ns#" xmlns:xlink="http://www.w3.org/1999/xlink" viewBox="0 0 24 24" xmlns:dc="http://purl.org/dc/elements/1.1/">
<metadata>
<rdf:RDF>
<cc:Work rdf:about="">
<dc:format>image/svg+xml</dc:format>
<dc:type rdf:resource="http://purl.org/dc/dcmitype/StillImage"/>
</cc:Work>
</rdf:RDF>
</metadata>
<defs>
<linearGradient id="a">
<stop stop-color="#fff" offset="0"/>
<stop stop-color="#98b6d3" offset="1"/>
</linearGradient>
<linearGradient id="d" y2="-5" xlink:href="#a" gradientUnits="userSpaceOnUse" x2="-7.5" y1="5" x1="7.5"/>
<linearGradient id="c" y2="4" xlink:href="#a" gradientUnits="userSpaceOnUse" x2="6.5" y1="-4" x1="-6.5"/>
<g id="b">
<rect stroke-linejoin="round" height="10" width="15" stroke="#222" y="-5" x="-7.5" fill="none"/>
<rect height="8" width="13" stroke="url(#c)" y="-4" x="-6.5" fill="url(#d)"/>
</g>
</defs>
<g transform="matrix(1,0,0,-1,0,24)">
<use opacity=".5" xlink:href="#b" transform="translate(12,12)"/>
<use xlink:href="#b" transform="translate(12,12) rotate(-45)"/>
<path d="m22 22v-3h2l-2.5-3-2.5 3h2v3h-3v1h3z"/>
<path d="m2 2v3h-2l2.5 3 2.5-3h-2v-3h3v-1h-3z"/>
</g>
</svg>
